…
# Read in Data

``` r
newsData <- read_csv("/Users/owensnyder/Desktop/OnlineNewsPopularity.csv")
newsData
```

    ## # A tibble: 39,644 × 61
    ##    url          timedelta n_tokens_title n_tokens_content n_unique_tokens n_non_stop_words n_non_stop_uniq…
    ##    <chr>            <dbl>          <dbl>            <dbl>           <dbl>            <dbl>            <dbl>
    ##  1 http://mash…       731             12              219           0.664             1.00            0.815
    ##  2 http://mash…       731              9              255           0.605             1.00            0.792
    ##  3 http://mash…       731              9              211           0.575             1.00            0.664
    ##  4 http://mash…       731              9              531           0.504             1.00            0.666
    ##  5 http://mash…       731             13             1072           0.416             1.00            0.541
    ##  6 http://mash…       731             10              370           0.560             1.00            0.698
    ##  7 http://mash…       731              8              960           0.418             1.00            0.550
    ##  8 http://mash…       731             12              989           0.434             1.00            0.572
    ##  9 http://mash…       731             11               97           0.670             1.00            0.837
    ## 10 http://mash…       731             10              231           0.636             1.00            0.797
    ## # … with 39,634 more rows, and 54 more variables: num_hrefs <dbl>, num_self_hrefs <dbl>, num_imgs <dbl>,
    ## #   num_videos <dbl>, average_token_length <dbl>, num_keywords <dbl>, data_channel_is_lifestyle <dbl>,
    ## #   data_channel_is_entertainment <dbl>, data_channel_is_bus <dbl>, data_channel_is_socmed <dbl>,
    ## #   data_channel_is_tech <dbl>, data_channel_is_world <dbl>, kw_min_min <dbl>, kw_max_min <dbl>,
    ## #   kw_avg_min <dbl>, kw_min_max <dbl>, kw_max_max <dbl>, kw_avg_max <dbl>, kw_min_avg <dbl>,
    ## #   kw_max_avg <dbl>, kw_avg_avg <dbl>, self_reference_min_shares <dbl>, self_reference_max_shares <dbl>,
    ## #   self_reference_avg_sharess <dbl>, weekday_is_monday <dbl>, weekday_is_tuesday <dbl>, …
…
